[
    {
        "Id du Livre": 1,
        "Titre": "Crépuscule",
        "Description": "L'avocat et journaliste publie un réquisitoire contre la politique d'Emmanuel Macron, d'abord diffusé sur Internet en marge du mouvement des gilets jaunes. Remanié et chapitré différemment, le texte se présente sous la forme d'une enquête menée auprès d'amis et de proches du président de la République autour des conditions de son accession à l'Elysée.",
        "Date de Sortie": "21-03-2019",
        "Edition": "Au diable vauvert",
        "Catégorie": "Politique",
        "Format": "Grand Format",
        "Prix en euros": 19
    },
    {
        "Id du Livre": 2,
        "Titre": "Contre Macron",
        "Description": "« Le Macronisme est une nouvelle variante du fascisme, et il nous faudra avoir la plus grande attention à la façon de débrancher ces êtres de nos institutions au moment du changement démocratique nécessaire et qu'ils chercheront compulsivement à éviter. » Telle est la thèse de Juan Branco, normalien et docteur en droit, conseiller juridique de Julian Assange et de Wikileaks, spécialisé dans les violences politiques et de masse. Ce texte montre comment, dès les premiers jours de son mandat, se dessinait chez Emmanuel Macron une pratique du pouvoir dangereuse pour la démocratie, ancrée dans une histoire politique éloignée des préceptes auxquels sa rhétorique donnait l'impression d'adhérer. ",
        "Date de Sortie": "12-01-2019",
        "Edition": "Divergences",
        "Catégorie": "Politique",
        "Format": "Poche",
        "Prix en euros": 13
    },
    {
        "Id du Livre": 3,
        "Titre": "L'Urgence de la pensée",
        "Description": "Publié en 1993, cet essai philosophico-politique conserve toute sa valeur. Pour reprendre Hindrich ASSONGO On peut si l’on veut, questionner et condamner l’acerbe et objectif Maurice Kamto, pour avoir siégé au gouvernement dont il a combattu l’irrationalité dans ses écrits. On pourrait, si l’on souhaite, s’interroger sur sa vraie ou fausse appartenance au sérail du Cameroun. Au terme de cet exercice de fouine inutile, il va rester une constance. Le message de son essai politico-philosophique, « L’Urgence de la pensée » garde toute sa validité",
        "Date de Sortie": "21-07-1998",
        "Edition": "Menaibuc Eds",
        "Catégorie": "Histoire",
        "Format": "Poche",
        "Prix en euros": 10.67
    },
    {
        "Id du Livre": 4,
        "Titre": "Atlas mondial",
        "Description": "Cet atlas est une mise à jour. Parce qu'une bonne compréhension de l'actualité nécessite une information précise, il fallait pour le monde un atlas à la fois complet, clair et synthétique. Un atlas qui va à l'essentiel. Les événements majeurs qui ont fait l'histoire récente de chaque pays sont ici rappelés. Accessible à tous, cet atlas accompagnera aussi vos enfants tout au long de leur scolarité.",
        "Date de Sortie": "22-08-2014",
        "Edition": "Ouest France",
        "Catégorie": "Géographie",
        "Format": "Grand Format",
        "Prix en euros": 5
    }
]